Device 1:0 pthread-Intel(R) Xeon(R) CPU           W3530  @ 2.80GHz
OpenCL in DEBUG mode!
===== run kernel =====
===== end kernel =====
../kernel/example.cl:184	Assertion failed | Maybe	18446744073709551394	-222 | Maybe	2,340000
Results: (666, 42)
global, local id: 0, g0l
golobal, local id: bal, local id: 1, 1
global, local id: 2, 2
global, local id: 3, 3
g8l, obal, local id: 0
global, local id: 9, 1
global, local id: 10, 2
global, local id: 11, 3
4, 0
global, local id: 5, 1
global, local id: 6, 2
global, local id: 7, 3
in: 666
PRINT message
PRINT1 42
PRINT2 42 -1
PRINT2 42 -1 3,140000
[../kernel/example.cl:26	Assertion `false' failed |	18446744073709551615	-1 |	0,500000]
[../kernel/example.cl:29	Assertion `get_global_id(0) == -1' failed |	123	123 |	124,000000]
[../kernel/example.cl:46	Assertion `n == 0' failed |	0	0 |	0,000000]
[../kernel/example.cl:47	Assertion `n == 0' failed |	0	0 |	0,000000]
[../kernel/example.cl:63	Assertion `n == 0' failed |	0	0 |	0,000000]
[../kernel/example.cl:147	Assertion `in == 0' failed |	0	0 |	0,000000]
[../kernel/example.cl:148	Assertion `in == 0' failed |	42	42 |	0,000000]
[../kernel/example.cl:149	Assertion `in == 0' failed |	18446744073709551574	-42 |	0,000000]
[../kernel/example.cl:150	Assertion `in == 0' failed |	0	0 |	3,140000]
[../kernel/example.cl:151	Assertion `in == 0' failed |	666	666 |	3,140000]
[../kernel/example.cl:178	Assertion `in == 0' failed |	0	0 |	0,000000]
[../kernel/example.cl:179	Assertion `in == 0' failed |	42	42 |	0,000000]
[../kernel/example.cl:180	Assertion `in == 0' failed |	18446744073709551574	-42 |	0,000000]
[../kernel/example.cl:181	Assertion `in == 0' failed |	0	0 |	3,140000]
[../kernel/example.cl:182	Assertion `in == 0' failed |	111	111 |	1,230000]
[../kernel/example.cl:184	Assertion `in == 0' failed |	18446744073709551394	-222	2,340000]
[../kernel/example.cl:186	Assertion `in == 0' failed |	0	0 |	0,000000]
