Starting scalastyle
start file /home/opi/data/hg/assertOpenCL/assertOpenCL/examples/Scala/./Example.scala
warning file=/home/opi/data/hg/assertOpenCL/assertOpenCL/examples/Scala/./Example.scala message=Header does not match expected text line=1
warning file=/home/opi/data/hg/assertOpenCL/assertOpenCL/examples/Scala/./Example.scala message=Magic Number line=199 column=68
warning file=/home/opi/data/hg/assertOpenCL/assertOpenCL/examples/Scala/./Example.scala message=Magic Number line=342 column=18
warning file=/home/opi/data/hg/assertOpenCL/assertOpenCL/examples/Scala/./Example.scala message=Avoid using null line=77 column=24
warning file=/home/opi/data/hg/assertOpenCL/assertOpenCL/examples/Scala/./Example.scala message=Avoid using null line=88 column=54
warning file=/home/opi/data/hg/assertOpenCL/assertOpenCL/examples/Scala/./Example.scala message=Avoid using null line=96 column=54
warning file=/home/opi/data/hg/assertOpenCL/assertOpenCL/examples/Scala/./Example.scala message=Avoid using null line=107 column=72
warning file=/home/opi/data/hg/assertOpenCL/assertOpenCL/examples/Scala/./Example.scala message=Avoid using null line=121 column=44
warning file=/home/opi/data/hg/assertOpenCL/assertOpenCL/examples/Scala/./Example.scala message=Avoid using null line=126 column=76
warning file=/home/opi/data/hg/assertOpenCL/assertOpenCL/examples/Scala/./Example.scala message=Avoid using null line=154 column=46
warning file=/home/opi/data/hg/assertOpenCL/assertOpenCL/examples/Scala/./Example.scala message=Avoid using null line=154 column=67
warning file=/home/opi/data/hg/assertOpenCL/assertOpenCL/examples/Scala/./Example.scala message=Avoid using null line=154 column=73
warning file=/home/opi/data/hg/assertOpenCL/assertOpenCL/examples/Scala/./Example.scala message=Avoid using null line=154 column=79
warning file=/home/opi/data/hg/assertOpenCL/assertOpenCL/examples/Scala/./Example.scala message=Avoid using null line=171 column=56
warning file=/home/opi/data/hg/assertOpenCL/assertOpenCL/examples/Scala/./Example.scala message=Avoid using null line=171 column=62
warning file=/home/opi/data/hg/assertOpenCL/assertOpenCL/examples/Scala/./Example.scala message=Avoid using null line=173 column=52
warning file=/home/opi/data/hg/assertOpenCL/assertOpenCL/examples/Scala/./Example.scala message=Avoid using null line=173 column=58
warning file=/home/opi/data/hg/assertOpenCL/assertOpenCL/examples/Scala/./Example.scala message=Avoid using null line=175 column=63
warning file=/home/opi/data/hg/assertOpenCL/assertOpenCL/examples/Scala/./Example.scala message=Avoid using null line=180 column=81
warning file=/home/opi/data/hg/assertOpenCL/assertOpenCL/examples/Scala/./Example.scala message=Avoid using null line=185 column=73
warning file=/home/opi/data/hg/assertOpenCL/assertOpenCL/examples/Scala/./Example.scala message=Avoid using null line=187 column=27
warning file=/home/opi/data/hg/assertOpenCL/assertOpenCL/examples/Scala/./Example.scala message=Avoid using null line=188 column=31
warning file=/home/opi/data/hg/assertOpenCL/assertOpenCL/examples/Scala/./Example.scala message=Avoid using null line=192 column=72
warning file=/home/opi/data/hg/assertOpenCL/assertOpenCL/examples/Scala/./Example.scala message=Avoid using null line=194 column=84
warning file=/home/opi/data/hg/assertOpenCL/assertOpenCL/examples/Scala/./Example.scala message=Avoid using null line=218 column=27
warning file=/home/opi/data/hg/assertOpenCL/assertOpenCL/examples/Scala/./Example.scala message=Avoid using null line=222 column=27
warning file=/home/opi/data/hg/assertOpenCL/assertOpenCL/examples/Scala/./Example.scala message=Avoid using null line=223 column=27
warning file=/home/opi/data/hg/assertOpenCL/assertOpenCL/examples/Scala/./Example.scala message=Avoid using null line=235 column=61
warning file=/home/opi/data/hg/assertOpenCL/assertOpenCL/examples/Scala/./Example.scala message=Avoid using null line=235 column=67
warning file=/home/opi/data/hg/assertOpenCL/assertOpenCL/examples/Scala/./Example.scala message=Avoid using null line=239 column=69
warning file=/home/opi/data/hg/assertOpenCL/assertOpenCL/examples/Scala/./Example.scala message=Avoid using null line=239 column=75
warning file=/home/opi/data/hg/assertOpenCL/assertOpenCL/examples/Scala/./Example.scala message=Avoid using null line=241 column=77
warning file=/home/opi/data/hg/assertOpenCL/assertOpenCL/examples/Scala/./Example.scala message=Avoid using null line=241 column=83
warning file=/home/opi/data/hg/assertOpenCL/assertOpenCL/examples/Scala/./Example.scala message=Regular expression matched 'println' line=161 column=17
warning file=/home/opi/data/hg/assertOpenCL/assertOpenCL/examples/Scala/./Example.scala message=Regular expression matched 'println' line=213 column=4
warning file=/home/opi/data/hg/assertOpenCL/assertOpenCL/examples/Scala/./Example.scala message=Regular expression matched 'println' line=229 column=4
warning file=/home/opi/data/hg/assertOpenCL/assertOpenCL/examples/Scala/./Example.scala message=Regular expression matched 'println' line=250 column=19
warning file=/home/opi/data/hg/assertOpenCL/assertOpenCL/examples/Scala/./Example.scala message=Regular expression matched 'println' line=259 column=4
warning file=/home/opi/data/hg/assertOpenCL/assertOpenCL/examples/Scala/./Example.scala message=Regular expression matched 'println' line=338 column=4
warning file=/home/opi/data/hg/assertOpenCL/assertOpenCL/examples/Scala/./Example.scala message=If block needs braces line=280 column=4
warning file=/home/opi/data/hg/assertOpenCL/assertOpenCL/examples/Scala/./Example.scala message=If block needs braces line=288 column=4
warning file=/home/opi/data/hg/assertOpenCL/assertOpenCL/examples/Scala/./Example.scala message=Method is longer than 50 lines line=139 column=6
warning file=/home/opi/data/hg/assertOpenCL/assertOpenCL/examples/Scala/./Example.scala message=Avoid wildcard imports line=18 column=0
warning file=/home/opi/data/hg/assertOpenCL/assertOpenCL/examples/Scala/./Example.scala message=Avoid wildcard imports line=20 column=0
end file /home/opi/data/hg/assertOpenCL/assertOpenCL/examples/Scala/./Example.scala
Processed 1 file(s)
Found 0 errors
Found 44 warnings
Finished in 1401 ms
